module ksa-rp-client

go 1.17

require (
	github.com/dvsekhvalnov/jose2go v1.5.0
	github.com/lestrrat-go/jwx/v2 v2.1.2
)

require (
	github.com/decred/dcrd/dcrec/secp256k1/v4 v4.3.0 // indirect
	github.com/goccy/go-json v0.10.3 // indirect
	github.com/lestrrat-go/blackmagic v1.0.2 // indirect
	github.com/lestrrat-go/httpcc v1.0.1 // indirect
	github.com/lestrrat-go/httprc v1.0.6 // indirect
	github.com/lestrrat-go/iter v1.0.2 // indirect
	github.com/lestrrat-go/option v1.0.1 // indirect
	github.com/segmentio/asm v1.2.0 // indirect
	golang.org/x/crypto v0.28.0 // indirect
	golang.org/x/sys v0.26.0 // indirect
)
